{
    "app-id": "org.gnome.Podcasts",
    "runtime": "org.gnome.Platform",
    "runtime-version": "3.36",
    "sdk": "org.gnome.Sdk",
    "sdk-extensions": [
        "org.freedesktop.Sdk.Extension.rust-stable"
    ],
    "command": "gnome-podcasts",
    "tags": [
        "nightly"
    ],
    "finish-args": [
        "--share=network",
        "--share=ipc",
        "--socket=x11",
        "--socket=fallback-x11",
        "--socket=wayland",
        "--socket=pulseaudio"
    ],
    "build-options": {
        "append-path": "/usr/lib/sdk/rust-stable/bin",
        "build-args": [
            "--share=network"
        ],
        "env": {
            "CARGO_HOME": "/run/build/gnome-podcasts/cargo",
            "RUST_BACKTRACE": "1"
        }
    },
    "modules": [
        {
            "name": "libhandy",
            "buildsystem": "meson",
            "config-opts": [
                "-Dintrospection=disabled",
                "-Dgtk_doc=false",
                "-Dtests=false",
                "-Dexamples=false",
                "-Dvapi=false",
                "-Dglade_catalog=disabled"
            ],
            "cleanup": [
                "/include",
                "/lib/pkgconfig"
            ],
            "sources": [
                {
                    "type": "git",
                    "url": "https://gitlab.gnome.org/GNOME/libhandy.git",
                    "tag": "1.0.0",
                    "commit": "94313c206258860b2428712e7ece1d02c5177857"
                }
            ]
        },
        {
            "name": "gnome-podcasts",
            "builddir": true,
            "buildsystem": "meson",
            "sources": [
                {
                    "type": "git",
                    "url": "https://gitlab.gnome.org/World/podcasts.git"
                }
            ]
        }
    ]
}
